 
digraph D {

    idle [shape=record, color=green,  label="idle| (No action)"];

    error_entry [shape=record, color=red, label="error_entry| Command output to safe mode"];

    error_wait_safe [shape=record, color=red,  label="error_wait_safe| Check for safe output  (timeout: panic)"];

    error_wait_print [shape=record, color=red, label="error_wait_print| Check for error printing on other thread  (timeout: panic)"];

    load_process_var [shape=record,  color=blue, label="load_process_var| Command output to process var"];

    check_process_var [shape=record, color=blue,  label="check_process_var| Check process var (timeout: error)"];
    
    trigger_entry [shape=record, color=green,   label="trigger_entry| Enable output"];
    
    trigger_monitor [shape=record, color=green,   label="trigger_monitor| Integrate delivered dose (timeout: error)"];
    
    trigger_finish [shape=record, color=green,   label="trigger_finish| Set output to zero"];
    
    panic [shape=record, color=red,  label="panic"];
    
  
    idle -> idle

    error_entry -> error_wait_safe

    error_wait_safe ->  error_wait_safe
    
    error_wait_safe -> panic
  
    error_wait_safe -> error_wait_print
    
    error_wait_print -> panic

    error_wait_print -> error_wait_print

    error_wait_print -> idle
    
    idle -> load_process_var
    
    load_process_var -> check_process_var
    
    check_process_var -> check_process_var
    
    check_process_var -> error_entry
    
    check_process_var -> idle
    
    idle -> trigger_entry
    
    trigger_entry -> trigger_monitor
    
    trigger_monitor -> trigger_finish
    
    trigger_monitor -> error_entry
    
    trigger_finish -> idle
    
    

}
